…
    "nba", ixseason, apikey) %>% 
    dfstools::select_nba_games_columns()
  status <- dfstools::append_table(
    connection, "games", games
  )
  if (ixseason == "2015-2016-regular") {
    teams <- games %>%     
      dplyr::select(schedule_home_team_abbreviation) %>% 
      dplyr::distinct() %>%
      dplyr::select(team = schedule_home_team_abbreviation) %>% 
      dplyr::arrange(team)
  }
}
print(teams)
#> # A tibble: 30 x 1
#>    team 
#>    <chr>
#>  1 ATL  
#>  2 BOS  
#>  3 BRO  
#>  4 CHA  
#>  5 CHI  
#>  6 CLE  
#>  7 DAL  
#>  8 DEN  
#>  9 DET  
#> 10 GSW  
#> # ... with 20 more rows
…
