Building an NBA DFS Database • dfstools
…
if (ixseason == "2015-2016-regular") {
    DBI::dbCreateTable(connection, "nba_games", games)
    
    # dbCreateTable creates an empty table, so we append the data
    DBI::dbAppendTable(connection, "nba_games", games)
    teams <- games %>% dplyr::select(schedule_home_team_abbreviation) %>% 
      dplyr::distinct() %>%
      dplyr::select(team = schedule_home_team_abbreviation) %>% 
      dplyr::arrange(team)
  } else {
    DBI::dbAppendTable(connection, "nba_games", games)
  }
}
print(teams)
#> # A tibble: 30 x 1
#>    team 
#>    <chr>
#>  1 ATL  
#>  2 BOS  
#>  3 BRO  
#>  4 CHA  
#>  5 CHI  
#>  6 CLE  
#>  7 DAL  
#>  8 DEN  
#>  9 DET  
#> 10 GSW  
#> # ... with 20 more rows
…
